{
  "project_info": {
    "project_number": "269584217930",
    "firebase_url": "https://mad-market-ad7a8.firebaseio.com",
    "project_id": "mad-market-ad7a8",
    "storage_bucket": "mad-market-ad7a8.appspot.com"
  },
  "client": [
    {
      "client_info": {
        "mobilesdk_app_id": "1:269584217930:android:54e992ceb413da2687f3b3",
        "android_client_info": {
          "package_name": "com.mad.market"
        }
      },
      "oauth_client": [
        {
          "client_id": "269584217930-5amtu1dfaue0t54at24sgrhb4rl5gom2.apps.googleusercontent.com",
          "client_type": 1,
          "android_info": {
            "package_name": "com.mad.market",
            "certificate_hash": "e212a630786756a08b5794c55ebef6304bb2c929"
          }
        },
        {
          "client_id": "269584217930-otevbvg91n07pobort0uv5fo2a4s1dro.apps.googleusercontent.com",
          "client_type": 3
        }
      ],
      "api_key": [
        {
          "current_key": "AIzaSyByADggSzINE2EtDVB2a4Q2t71hwjW0r9U"
        }
      ],
      "services": {
        "appinvite_service": {
          "other_platform_oauth_client": [
            {
              "client_id": "269584217930-otevbvg91n07pobort0uv5fo2a4s1dro.apps.googleusercontent.com",
              "client_type": 3
            }
          ]
        }
      }
    }
  ],
  "configuration_version": "1"
}